1 10 20
100 200 125
201 210 89
900 1000 174
1003 3068 217
1003 5124 238
1003 7180 262
1003 9236 262
2006 4080 238
2006 6136 238
2006 8192 262
2006 10248 262
3009 5092 238
3009 7148 262
3009 9204 262
3009 11260 268
4012 6104 236
4012 8160 262
4012 10216 262
4012 12272 268
5015 7116 262
5015 9172 262
5015 11228 268
5015 13284 276
6018 8128 262
6018 10184 262
6018 12240 268
6018 14296 276
7021 9140 252
7021 11196 268
7021 13252 268
7021 15308 276
8024 10152 260
8024 12208 268
8024 14264 276
8024 16320 276
9027 11164 268
9027 13220 268
9027 15276 276
9027 17332 276
10030 12176 268
10030 14232 276
10030 16288 276
10030 18344 279
11033 13188 263
11033 15244 276
11033 17300 276
11033 19356 279
12036 14200 276
12036 16256 276
12036 18312 279
12036 20368 279
13039 15212 276
13039 17268 276
13039 19324 279
13039 21380 279
14042 16224 271
14042 18280 279
14042 20336 279
14042 22392 279
15045 17236 266
15045 19292 279
15045 21348 279
15045 23404 279
16048 18248 279
16048 20304 279
16048 22360 279
16048 24416 282
17051 19260 279
17051 21316 279
17051 23372 279
17051 25428 282
18054 20272 274
18054 22328 274
18054 24384 282
18054 26440 282
19057 21284 274
19057 23340 274
19057 25396 282
19057 27452 308
20060 22296 269
20060 24352 282
20060 26408 282
20060 28464 308
21063 23308 269
21063 25364 282
21063 27420 308
21063 29476 308
22066 24320 282
22066 26376 282
22066 28432 308
22066 30488 308
23069 25332 282
23069 27388 308
23069 29444 308
23069 31500 308
24072 26344 264
24072 28400 308
24072 30456 308
24072 32512 308
25075 27356 308
25075 29412 308
25075 31468 308
25075 33524 308
26078 28368 308
26078 30424 308
26078 32480 308
26078 34536 311
27081 29380 272
27081 31436 285
27081 33492 285
27081 35548 311
28084 30392 272
28084 32448 285
28084 34504 311
28084 36560 324
29087 31404 272
29087 33460 285
29087 35516 311
29087 37572 324
30090 32416 285
30090 34472 311
30090 36528 324
30090 38584 324
31093 33428 285
31093 35484 311
31093 37540 324
31093 39596 324
32096 34440 311
32096 36496 324
32096 38552 324
32096 40608 324
33099 35452 311
33099 37508 324
33099 39564 324
33099 41620 324
34102 36464 324
34102 38520 324
34102 40576 324
34102 42632 324
35105 37476 324
35105 39532 324
35105 41588 324
35105 43644 324
36108 38488 306
36108 40544 306
36108 42600 306
36108 44656 306
37111 39500 306
37111 41556 306
37111 43612 306
37111 45668 314
38114 40512 306
38114 42568 306
38114 44624 306
38114 46680 314
39117 41524 306
39117 43580 306
39117 45636 314
39117 47692 314
40120 42536 288
40120 44592 288
40120 46648 314
40120 48704 314
41123 43548 288
41123 45604 314
41123 47660 314
41123 49716 314
42126 44560 288
42126 46616 314
42126 48672 314
42126 50728 314
43129 45572 314
43129 47628 314
43129 49684 314
43129 51740 314
44132 46584 314
44132 48640 314
44132 50696 314
44132 52752 340
45135 47596 314
45135 49652 314
45135 51708 314
45135 53764 340
46138 48608 314
46138 50664 314
46138 52720 340
46138 54776 340
47141 49620 314
47141 51676 314
47141 53732 340
47141 55788 340
48144 50632 296
48144 52688 340
48144 54744 340
48144 56800 340
49147 51644 309
49147 53700 340
49147 55756 340
49147 57812 340
50150 52656 340
50150 54712 340
50150 56768 340
50150 58824 340
51153 53668 340
51153 55724 340
51153 57780 340
51153 59836 340
52156 54680 340
52156 56736 340
52156 58792 340
52156 60848 340
53159 55692 322
53159 57748 322
53159 59804 322
53159 61860 335
54162 56704 322
54162 58760 322
54162 60816 322
54162 62872 335
55165 57716 322
55165 59772 322
55165 61828 335
55165 63884 335
